/* XPM */
static char *clist_xpm[] = {
/* columns rows colors chars-per-pixel */
"21 21 5 1",
"  c Black",
". c Gray74",
"X c Gray87",
"o c Gray100",
"O c None",
/* pixels */
"OOOOOOOOOOOOOOOOOOOOO",
"O                   O",
"O XXXXXX XXXX XXXXX O",
"O XXXXXX XXXX XXXXX O",
"O                   O",
"O oooooo oooo ooooo O",
"O oooooo oooo ooooo O",
"O                   O",
"O oooooo oooo ooooo O",
"O oooooo oooo ooooo O",
"O                   O",
"O oooooo oooo ooooo O",
"O oooooo oooo ooooo O",
"O                   O",
"O oooooo oooo ooooo O",
"O oooooo oooo ooooo O",
"O                   O",
"O oooooo oooo ooooo O",
"O oooooo oooo ooooo O",
"O                   O",
"OOOOOOOOOOOOOOOOOOOOO"
};
