/* XPM */
static char *fixed_xpm[] = {
/* columns rows colors chars-per-pixel */
"21 21 5 1",
"  c Black",
". c #7b7b7b",
"X c Gray74",
"o c Gray100",
"O c None",
/* pixels */
"oooooooooooooooooooo ",
"oOOOOOOOOOOOOOOOOOO. ",
"oOOOOOOOOOOOOOOOOOO. ",
"oOooooo OOOOOOOOOOO. ",
"oOoOOO. OOOOOOOOOOO. ",
"oOoOOO. OOOOooooo O. ",
"oOo.... OOOOoOOO. O. ",
"oO      OOOOoOOO. O. ",
"oOOOOOOOOOOOo.... O. ",
"oOOOOOOOOOOO      O. ",
"oOOOOOOOOOOOOOOOOOO. ",
"oOOOOooooo OOOOOOOO. ",
"oOOOOoOOO. OOOOOOOO. ",
"oOOOOoOOO. OOOOOOOO. ",
"oOOOOo.... OOOOOOOO. ",
"oOOOO      OOOOOOOO. ",
"oOOOOOOOOOOOOOOOOOO. ",
"oOOOOOOOOOOOOOOOOOO. ",
"oOOOOOOOOOOOOOOOOOO. ",
"o................... ",
"                     "
};
