/* XPM */
static char *preview_xpm[] = {
/* columns rows colors chars-per-pixel */
"21 21 8 1",
"  c #00007b",
". c #7b7b7b",
"X c Blue",
"o c Red",
"O c Magenta",
"+ c Gray74",
"@ c Gray87",
"# c None",
/* pixels */
"     XXXXXXXX###@@@@@",
"     XXXXXXXXX##@#@@@",
"      XXXXXXXXX#@#@@@",
"     XXXXXXXXX##@#@@@",
"      XXXXXXX###@#@@@",
"     XXXOXOXX###@@@@@",
"    .XOXOXXO####@#@@@",
"   .X.OOOOO#X###@#@@@",
" . O.OOOOOOO###@@@@@@",
"  ...OOOOO#O###@@@@@@",
" ...O.OOOOOO###@@@@@@",
" ....OOOOOO#####@@@@@",
". ..OOOOOOO####@@@@@@",
" ....OOOOOOO###@@@@@@",
"....o.OOOOOO####@@@@@",
" ....OOOOOOO###@@@@@@",
"...o.oOoOOOO#O@@@@@@@",
" ...oooOoOOOO@#@@@@@@",
".....oooooOOO@O@@@@@@",
"....o.oooooOO@o@@@@@@",
".....ooooooo@o@@@@@@@"
};
