/* XPM */
static char *vruler_xpm[] = {
/* columns rows colors chars-per-pixel */
"21 21 3 1",
"  c Black",
". c Gray74",
"X c None",
/* pixels */
"XXXX   XXXXXXXXXXXXXX",
"XXXX X XX        XXXX",
"XXXX X XXXXXXXXX XXXX",
"XXXX   XXXXXXXXX XXXX",
"XXXXXXXXXXXXX    XXXX",
"XXXXXXXXXXXXXXXX XXXX",
"XXXXXXXXXXXXXXXX XXXX",
"XXXXXXXXXXX      XXXX",
"XXXXXXXXXXXXXXXX XXXX",
"XXXXXXXXXXXXXXXX XXXX",
"XXXXXXXXXXXXX    XXXX",
"XXXXXXXXXXXXXXXX XXXX",
"XXXXXXXXXXXXXXXX XXXX",
"XXXXXXXXXXX      XXXX",
"XXXXXXXXXXXXXXXX XXXX",
"XXXXXXXXXXXXXXXX XXXX",
"XXXX   XXXXXX    XXXX",
"XXXX XXXXXXXXXXX XXXX",
"XXXX   XXXXXXXXX XXXX",
"XXXXXX XX        XXXX",
"XXXX   XXXXXXXXXXXXXX"
};
