/* XPM */
static char *vscrollbar_xpm[] = {
/* columns rows colors chars-per-pixel */
"20 21 6 1",
"  c Black",
". c #7b7b7b",
"X c Gray61",
"o c Gray74",
"O c Gray100",
"+ c None",
/* pixels */
"++++++         +++++",
"++++++ XXXOXXXO+++++",
"++++++ XXO+.XXO+++++",
"++++++ XO+++.XO+++++",
"++++++ O+++++.O+++++",
"++++++        O+++++",
"++++++ XXXXXXXO+++++",
"++++++ OOOOOO.O+++++",
"++++++ O+++++.O+++++",
"++++++ O+++++.O+++++",
"++++++ O+++++.O+++++",
"++++++ O+++++.O+++++",
"++++++ O+++++.O+++++",
"++++++ O......O+++++",
"++++++ XXXXXXXO+++++",
"++++++ OOOOOOOO+++++",
"++++++ O+++++.O+++++",
"++++++ XO+++.XO+++++",
"++++++ XXO+.XXO+++++",
"++++++ XXX.XXXO+++++",
"++++++OOOOOOOOO+++++"
};
